{
  "rulesDirectory": ["node_modules/codelyzer"],
  "extends": "tslint:recommended",
  "linterOptions": {
    "exclude": ["src/assets"]
  },
  "rules": {
    "array-type": false,
    "arrow-parens": false,
    "arrow-return-shorthand": true,
    "callable-types": true,
    "class-name": true,
    "comment-format": [true, "check-space"],
    "component-class-suffix": true,
    "curly": true,
    "deprecation": {
      "severity": "warn"
    },
    "directive-class-suffix": true,
    "eofline": true,
    "forin": true,
    "import-blacklist": [true, "rxjs/Rx"],
    "import-spacing": true,
    "indent": [true, "spaces", 4],
    "interface-name": false,
    "interface-over-type-literal": true,
    "label-position": true,
    "max-classes-per-file": false,
    "max-line-length": [
      true,
      {
        "limit": 120,
        "ignore-pattern": "^import |^export | implements"
      }
    ],
    "member-access": false,
    "member-ordering": [
      true,
      {
        "order": [
          "static-field",
          "instance-field",
          "static-method",
          "instance-method"
        ]
      }
    ],
    "no-arg": true,
    "no-bitwise": true,
    "no-conflicting-lifecycle": true,
    "no-consecutive-blank-lines": false,
    "no-console": [true, "debug", "info", "time", "timeEnd", "trace"],
    "no-construct": true,
    "no-debugger": true,
    "no-duplicate-super": true,
    "no-empty": false,
    "no-empty-interface": true,
    "no-eval": true,
    "no-host-metadata-property": true,
    "no-inferrable-types": [true, "ignore-params"],
    "no-input-rename": true,
    "no-inputs-metadata-property": true,
    "no-misused-new": true,
    "no-non-null-assertion": true,
    "no-output-native": true,
    "no-output-on-prefix": true,
    "no-output-rename": true,
    "no-outputs-metadata-property": true,
    "no-redundant-jsdoc": true,
    "no-shadowed-variable": true,
    "no-string-literal": false,
    "no-string-throw": true,
    "no-switch-case-fall-through": true,
    "no-trailing-whitespace": true,
    "no-unnecessary-initializer": true,
    "no-unused-expression": true,
    "no-var-keyword": true,
    "no-var-requires": false,
    "object-literal-key-quotes": [true, "as-needed"],
    "object-literal-shorthand": false,
    "object-literal-sort-keys": false,
    "one-line": false,
    "ordered-imports": false,
    "prefer-const": true,
    "quotemark": [true, "single"],
    "radix": true,
    "semicolon": [true, "always"],
    "template-banana-in-box": true,
    "template-no-negated-async": true,
    "trailing-comma": false,
    "triple-equals": [true, "allow-null-check"],
    "typedef-whitespace": [
      true,
      {
        "call-signature": "nospace",
        "index-signature": "nospace",
        "parameter": "nospace",
        "property-declaration": "nospace",
        "variable-declaration": "nospace"
      }
    ],
    "unified-signatures": true,
    "use-life-cycle-interface": true,
    "use-lifecycle-interface": true,
    "use-pipe-transform-interface": true,
    "variable-name": [
      true,
      "ban-keywords",
      "check-format",
      "allow-pascal-case",
      "allow-snake-case",
      "allow-leading-underscore"
    ],
    "whitespace": [
      true,
      "check-branch",
      "check-decl",
      "check-operator",
      "check-separator",
      "check-type"
    ]
  }
}
